…
**TASK: Above, we created the table `participants` and `stimuli`. Combine these two tables to create a table `trials` which creates all the possible trials in an experiment where each participant sees each stimulus once. The resulting table should have 60 rows. Before combining the tables, remove the column named `age` from `participants`.**


<div class='webex-solution'><button>Solution</button>



```
## # A tibble: 60 × 3
##       id word   cond       
##    <int> <chr>  <chr>      
##  1     1 red    congruent  
##  2     1 red    incongruent
##  3     1 green  congruent  
##  4     1 green  incongruent
##  5     1 blue   congruent  
##  6     1 blue   incongruent
##  7     1 yellow congruent  
##  8     1 yellow incongruent
##  9     1 purple congruent  
## 10     1 purple incongruent
## # ℹ 50 more rows
```
…
#### Inner join with `dplyr::inner_join()`

Sometimes what you need to do is combine information from two tables but you don't want all possible combinations; rather, you want to keep the rows from both tables that match on certain 'key' values.

For example, in the `participants` table we have each participant's age. If we wanted to combine that information with the information in `trials` (e.g., in order to analyze Stroop interference across age), then we'd need a way to get the `age` variable into `trials`. For this we can use an `inner_join()`, specifying the `key` column in the `by` argument to the function.


``` r
participants |>
  inner_join(trials, by = join_by(id))
```

```
## # A tibble: 60 × 4
##       id   age word   cond       
##    <int> <int> <chr>  <chr>      
##  1     1    27 red    congruent  
##  2     1    27 red    incongruent
##  3     1    27 green  congruent  
##  4     1    27 green  incongruent
##  5     1    27 blue   congruent  
##  6     1    27 blue   incongruent
##  7     1    27 yellow congruent  
##  8     1    27 yellow incongruent
##  9     1    27 purple congruent  
## 10     1    27 purple incongruent
## # ℹ 50 more rows
```
…
Then you will merge together the information in the three tables, and calculate the response variable according to the model formula above.

### Generate a sample of stimuli

Let's randomly generate our 50 items. Create a tibble called `item` like the one below, where `iri` are the by-item random intercepts (drawn from a normal distribution with variance $\omega_{00}^2$ = `iri_sd^2`).  Half of the words are of type NOUN (`cond` = -.5) and half of type VERB (`cond` = .5).




```
## # A tibble: 50 × 3
##    item_id  cond     iri
##      <int> <dbl>   <dbl>
##  1       1  -0.5 -217.  
##  2       2   0.5  -77.9 
##  3       3  -0.5  -96.9 
##  4       4   0.5   40.4 
##  5       5  -0.5   28.0 
##  6       6   0.5  160.  
##  7       7  -0.5   -4.45
##  8       8   0.5  -83.9 
##  9       9  -0.5 -121.  
## 10      10   0.5  -12.1 
## # ℹ 40 more rows
```
…
</div>


### Generate a sample of encounters (trials)

Each trial is an *encounter* between a particular subject and stimulus.  In this experiment, each subject will see each stimulus.  Generate a table `trials` that lists the encounters in the experiments. Note: each participant encounters each stimulus item once.  Use the `cross_join()` function to create all possible encounters.

Now apply this example to generate the table below, where `err` is the residual term, drawn from \(N \sim \left(0, \sigma^2\right)\), where \(\sigma\) is `err_sd`.




```
## # A tibble: 5,000 × 3
##    subj_id item_id    err
##      <int>   <int>  <dbl>
##  1       1       1  -64.3
##  2       1       2  585. 
##  3       1       3  127. 
##  4       1       4  182. 
##  5       1       5  -47.6
##  6       1       6   22.0
##  7       1       7 -265. 
##  8       1       8  604. 
##  9       1       9  249. 
## 10       1      10 -147. 
## # ℹ 4,990 more rows
```
…
</div>


### Join `subjects`, `items`, and `trials`

Merge the information in `subjects`, `items`, and `trials` to create the full dataset `dat`, which looks like this:




```
## # A tibble: 5,000 × 7
##    subj_id item_id   sri     iri   srs  cond    err
##      <int>   <int> <dbl>   <dbl> <dbl> <dbl>  <dbl>
##  1       1       1  42.9 -217.    25.7  -0.5  -64.3
##  2       1       2  42.9  -77.9   25.7   0.5  585. 
##  3       1       3  42.9  -96.9   25.7  -0.5  127. 
##  4       1       4  42.9   40.4   25.7   0.5  182. 
##  5       1       5  42.9   28.0   25.7  -0.5  -47.6
##  6       1       6  42.9  160.    25.7   0.5   22.0
##  7       1       7  42.9   -4.45  25.7  -0.5 -265. 
##  8       1       8  42.9  -83.9   25.7   0.5  604. 
##  9       1       9  42.9 -121.    25.7  -0.5  249. 
## 10       1      10  42.9  -12.1   25.7   0.5 -147. 
## # ℹ 4,990 more rows
```
…
### Create the response variable {#addy}

Add the response variable `Y` to dat according to the model formula:

$$Y_{si} = \beta_0 + S_{0s} + I_{0i} + (\beta_1 + S_{1s})X_{i} + e_{si}$$

so that the resulting table (`dat2`) looks like this:




```
## # A tibble: 5,000 × 8
##    subj_id item_id     Y   sri     iri   srs  cond    err
##      <int>   <int> <dbl> <dbl>   <dbl> <dbl> <dbl>  <dbl>
##  1       1       1  509.  42.9 -217.    25.7  -0.5  -64.3
##  2       1       2 1403.  42.9  -77.9   25.7   0.5  585. 
##  3       1       3  820.  42.9  -96.9   25.7  -0.5  127. 
##  4       1       4 1118.  42.9   40.4   25.7   0.5  182. 
##  5       1       5  770.  42.9   28.0   25.7  -0.5  -47.6
##  6       1       6 1077.  42.9  160.    25.7   0.5   22.0
##  7       1       7  520.  42.9   -4.45  25.7  -0.5 -265. 
##  8       1       8 1416.  42.9  -83.9   25.7   0.5  604. 
##  9       1       9  918.  42.9 -121.    25.7  -0.5  249. 
## 10       1      10  737.  42.9  -12.1   25.7   0.5 -147. 
## # ℹ 4,990 more rows
```
…
